{
  "success": true,
  "message": "Success",
  "data": {
    "items": [
      {
        "id": "3adc3fab-f218-4704-a594-52a39632b8a9",
        "code": "VCH-A01DD5FF",
        "rewardId": "93e0e4ec-4a1a-41c3-b0a8-7b4410f49e04",
        "rewardName": "Rửa xe - Hút bụi free",
        "storeName": null,
        "storeItemId": null,
        "itemType": "Reward",
        "status": "Active",
        "issuedAt": "2026-04-06T14:34:14.517836+00:00",
        "expiredAt": "2026-05-06T14:34:14.517836+00:00",
        "usedAt": null,
        "shortDescription": "[ECOGREEN RỬA XE] Nhanh chóng, xanh - sạch - đẹp",
        "appliesToAll": false,
        "appliedStores": [
          {
            "id": "e7429547-4094-4a75-9c53-81a66db54ba4",
            "code": "",
            "name": "EcoGreen Nam Hoà",
            "address": null,
            "latitude": 10.8140699,
            "longitude": 106.7775661,
            "provinceCode": null,
            "provinceName": null,
            "wardCode": null,
            "wardName": null,
            "description": null,
            "imageUrl": "https://api-uat.ecogreenhub.vn/api/upload/image/permanent/9793c77669924baf8e362d7b7e7077d2.webp",
            "storeImageUrl": "https://api-uat.ecogreenhub.vn/api/upload/image/permanent/9793c77669924baf8e362d7b7e7077d2.webp",
            "phone": null,
            "operatingHours": null,
            "openTime": null,
            "closeTime": null,
            "distanceKm": 12.66,
            "googleMapsDirectionUrl": "https://www.google.com/maps/dir/?api=1&destination=10.8140699,106.7775661"
          }
        ]
      }
    ],
    "pageNumber": 1,
    "pageSize": 1,
    "totalCount": 3,
    "totalPages": 3,
    "hasPrevious": false,
    "hasNext": true
  },
  "errors": null
}
